<?xml version="1.0" encoding="UTF-8" standalone="no"?>
<!DOCTYPE svg PUBLIC "-//W3C//DTD SVG 1.1//EN"
 "http://www.w3.org/Graphics/SVG/1.1/DTD/svg11.dtd">
<!-- Generated by graphviz version 2.47.0 (20210316.0004)
 -->
<!-- Title: dependencies Pages: 1 -->
<svg width="1280pt" height="284pt"
 viewBox="0.00 0.00 1280.00 284.00" xmlns="http://www.w3.org/2000/svg" xmlns:xlink="http://www.w3.org/1999/xlink">
<g id="graph0" class="graph" transform="scale(1 1) rotate(0) translate(4 280)">
<title>dependencies</title>
<polygon fill="white" stroke="transparent" points="-4,4 -4,-280 1276,-280 1276,4 -4,4"/>
<text text-anchor="start" x="615.01" y="-42.4" font-family="Times-12" font-weight="bold" font-size="14.00">Legend</text>
<polygon fill="#ffffb3" stroke="transparent" points="402,-10 402,-30 422,-30 422,-10 402,-10"/>
<text text-anchor="start" x="425.63" y="-15.4" font-family="Times-12" font-size="14.00"> &#160;Declarations</text>
<polygon fill="#8dd3c7" stroke="transparent" points="515,-10 515,-30 535,-30 535,-10 515,-10"/>
<text text-anchor="start" x="538.73" y="-15.4" font-family="Times-12" font-size="14.00"> &#160;Module</text>
<polygon fill="#80b1d3" stroke="transparent" points="601,-10 601,-30 621,-30 621,-10 601,-10"/>
<text text-anchor="start" x="624.78" y="-15.4" font-family="Times-12" font-size="14.00"> &#160;Bootstrap</text>
<polygon fill="#fdb462" stroke="transparent" points="698,-10 698,-30 718,-30 718,-10 698,-10"/>
<text text-anchor="start" x="721.67" y="-15.4" font-family="Times-12" font-size="14.00"> &#160;Providers</text>
<polygon fill="#fb8072" stroke="transparent" points="794,-10 794,-30 814,-30 814,-10 794,-10"/>
<text text-anchor="start" x="817.73" y="-15.4" font-family="Times-12" font-size="14.00"> &#160;Exports</text>
<g id="clust1" class="cluster">
<title>cluster_PecaCortadaModule</title>
<polygon fill="none" stroke="black" stroke-dasharray="1,5" points="8,-70 8,-268 1264,-268 1264,-70 8,-70"/>
</g>
<g id="clust6" class="cluster">
<title>cluster_PecaCortadaModule_exports</title>
<polygon fill="none" stroke="black" points="488,-208 488,-260 660,-260 660,-208 488,-208"/>
</g>
<g id="clust2" class="cluster">
<title>cluster_PecaCortadaModule_declarations</title>
<polygon fill="none" stroke="black" points="826,-78 826,-130 1256,-130 1256,-78 826,-78"/>
</g>
<g id="clust5" class="cluster">
<title>cluster_PecaCortadaModule_imports</title>
<polygon fill="none" stroke="black" points="16,-78 16,-130 818,-130 818,-78 16,-78"/>
</g>
<!-- PecaCortadaComponent -->
<g id="node1" class="node">
<title>PecaCortadaComponent</title>
<polygon fill="#ffffb3" stroke="black" points="1248.08,-122 1095.92,-122 1095.92,-86 1248.08,-86 1248.08,-122"/>
<text text-anchor="middle" x="1172" y="-99.8" font-family="Times,serif" font-size="14.00">PecaCortadaComponent</text>
</g>
<!-- PecaCortadaModule -->
<g id="node3" class="node">
<title>PecaCortadaModule</title>
<polygon fill="#8dd3c7" stroke="black" points="639.29,-187 636.29,-191 615.29,-191 612.29,-187 508.71,-187 508.71,-151 639.29,-151 639.29,-187"/>
<text text-anchor="middle" x="574" y="-164.8" font-family="Times,serif" font-size="14.00">PecaCortadaModule</text>
</g>
<!-- PecaCortadaComponent&#45;&gt;PecaCortadaModule -->
<g id="edge1" class="edge">
<title>PecaCortadaComponent&#45;&gt;PecaCortadaModule</title>
<path fill="none" stroke="black" d="M1172,-122.29C1172,-144.21 1172,-178 1172,-178 1172,-178 649.42,-178 649.42,-178"/>
<polygon fill="black" stroke="black" points="649.42,-174.5 639.42,-178 649.42,-181.5 649.42,-174.5"/>
</g>
<!-- TabelaPecasCortadasEntradaComponent -->
<g id="node2" class="node">
<title>TabelaPecasCortadasEntradaComponent</title>
<polygon fill="#ffffb3" stroke="black" points="1078.09,-122 833.91,-122 833.91,-86 1078.09,-86 1078.09,-122"/>
<text text-anchor="middle" x="956" y="-99.8" font-family="Times,serif" font-size="14.00">TabelaPecasCortadasEntradaComponent</text>
</g>
<!-- TabelaPecasCortadasEntradaComponent&#45;&gt;PecaCortadaModule -->
<g id="edge2" class="edge">
<title>TabelaPecasCortadasEntradaComponent&#45;&gt;PecaCortadaModule</title>
<path fill="none" stroke="black" d="M956,-122.11C956,-141.34 956,-169 956,-169 956,-169 649.23,-169 649.23,-169"/>
<polygon fill="black" stroke="black" points="649.23,-165.5 639.23,-169 649.23,-172.5 649.23,-165.5"/>
</g>
<!-- PecaCortadaComponent  -->
<g id="node9" class="node">
<title>PecaCortadaComponent </title>
<polygon fill="#fb8072" stroke="black" points="651.58,-252 496.42,-252 496.42,-216 651.58,-216 651.58,-252"/>
<text text-anchor="middle" x="574" y="-229.8" font-family="Times,serif" font-size="14.00">PecaCortadaComponent </text>
</g>
<!-- PecaCortadaModule&#45;&gt;PecaCortadaComponent  -->
<g id="edge8" class="edge">
<title>PecaCortadaModule&#45;&gt;PecaCortadaComponent </title>
<path fill="none" stroke="black" stroke-dasharray="5,2" d="M574,-187.11C574,-187.11 574,-205.99 574,-205.99"/>
<polygon fill="black" stroke="black" points="570.5,-205.99 574,-215.99 577.5,-205.99 570.5,-205.99"/>
</g>
<!-- ButtonActionComponent -->
<g id="node4" class="node">
<title>ButtonActionComponent</title>
<polygon fill="#8dd3c7" stroke="black" points="809.55,-122 806.55,-126 785.55,-126 782.55,-122 652.45,-122 652.45,-86 809.55,-86 809.55,-122"/>
<text text-anchor="middle" x="731" y="-99.8" font-family="Times,serif" font-size="14.00">ButtonActionComponent</text>
</g>
<!-- ButtonActionComponent&#45;&gt;PecaCortadaModule -->
<g id="edge3" class="edge">
<title>ButtonActionComponent&#45;&gt;PecaCortadaModule</title>
<path fill="none" stroke="black" d="M731,-122.03C731,-138.4 731,-160 731,-160 731,-160 649.22,-160 649.22,-160"/>
<polygon fill="black" stroke="black" points="649.22,-156.5 639.22,-160 649.22,-163.5 649.22,-156.5"/>
</g>
<!-- ButtonComponent -->
<g id="node5" class="node">
<title>ButtonComponent</title>
<polygon fill="#8dd3c7" stroke="black" points="633.95,-122 630.95,-126 609.95,-126 606.95,-122 514.05,-122 514.05,-86 633.95,-86 633.95,-122"/>
<text text-anchor="middle" x="574" y="-99.8" font-family="Times,serif" font-size="14.00">ButtonComponent</text>
</g>
<!-- ButtonComponent&#45;&gt;PecaCortadaModule -->
<g id="edge4" class="edge">
<title>ButtonComponent&#45;&gt;PecaCortadaModule</title>
<path fill="none" stroke="black" d="M574,-122.11C574,-122.11 574,-140.99 574,-140.99"/>
<polygon fill="black" stroke="black" points="570.5,-140.99 574,-150.99 577.5,-140.99 570.5,-140.99"/>
</g>
<!-- CardTenaxModule -->
<g id="node6" class="node">
<title>CardTenaxModule</title>
<polygon fill="#8dd3c7" stroke="black" points="495.74,-122 492.74,-126 471.74,-126 468.74,-122 374.26,-122 374.26,-86 495.74,-86 495.74,-122"/>
<text text-anchor="middle" x="435" y="-99.8" font-family="Times,serif" font-size="14.00">CardTenaxModule</text>
</g>
<!-- CardTenaxModule&#45;&gt;PecaCortadaModule -->
<g id="edge5" class="edge">
<title>CardTenaxModule&#45;&gt;PecaCortadaModule</title>
<path fill="none" stroke="black" d="M435,-122.03C435,-138.4 435,-160 435,-160 435,-160 498.57,-160 498.57,-160"/>
<polygon fill="black" stroke="black" points="498.57,-163.5 508.57,-160 498.57,-156.5 498.57,-163.5"/>
</g>
<!-- InputMoneyComponent -->
<g id="node7" class="node">
<title>InputMoneyComponent</title>
<polygon fill="#8dd3c7" stroke="black" points="356.04,-122 353.04,-126 332.04,-126 329.04,-122 205.96,-122 205.96,-86 356.04,-86 356.04,-122"/>
<text text-anchor="middle" x="281" y="-99.8" font-family="Times,serif" font-size="14.00">InputMoneyComponent</text>
</g>
<!-- InputMoneyComponent&#45;&gt;PecaCortadaModule -->
<g id="edge6" class="edge">
<title>InputMoneyComponent&#45;&gt;PecaCortadaModule</title>
<path fill="none" stroke="black" d="M281,-122.11C281,-141.34 281,-169 281,-169 281,-169 498.61,-169 498.61,-169"/>
<polygon fill="black" stroke="black" points="498.61,-172.5 508.61,-169 498.61,-165.5 498.61,-172.5"/>
</g>
<!-- InputValidatorComponent -->
<g id="node8" class="node">
<title>InputValidatorComponent</title>
<polygon fill="#8dd3c7" stroke="black" points="187.75,-122 184.75,-126 163.75,-126 160.75,-122 24.25,-122 24.25,-86 187.75,-86 187.75,-122"/>
<text text-anchor="middle" x="106" y="-99.8" font-family="Times,serif" font-size="14.00">InputValidatorComponent</text>
</g>
<!-- InputValidatorComponent&#45;&gt;PecaCortadaModule -->
<g id="edge7" class="edge">
<title>InputValidatorComponent&#45;&gt;PecaCortadaModule</title>
<path fill="none" stroke="black" d="M106,-122.29C106,-144.21 106,-178 106,-178 106,-178 498.43,-178 498.43,-178"/>
<polygon fill="black" stroke="black" points="498.43,-181.5 508.43,-178 498.43,-174.5 498.43,-181.5"/>
</g>
</g>
</svg>
