<?xml version="1.0" encoding="UTF-8" standalone="no"?>
<!DOCTYPE svg PUBLIC "-//W3C//DTD SVG 1.1//EN"
 "http://www.w3.org/Graphics/SVG/1.1/DTD/svg11.dtd">
<!-- Generated by graphviz version 2.47.0 (20210316.0004)
 -->
<!-- Title: dependencies Pages: 1 -->
<svg width="652pt" height="211pt"
 viewBox="0.00 0.00 652.00 211.00" xmlns="http://www.w3.org/2000/svg" xmlns:xlink="http://www.w3.org/1999/xlink">
<g id="graph0" class="graph" transform="scale(1 1) rotate(0) translate(4 207)">
<title>dependencies</title>
<polygon fill="white" stroke="transparent" points="-4,4 -4,-207 648,-207 648,4 -4,4"/>
<text text-anchor="start" x="301.01" y="-42.4" font-family="Times-12" font-weight="bold" font-size="14.00">Legend</text>
<polygon fill="#ffffb3" stroke="transparent" points="88,-10 88,-30 108,-30 108,-10 88,-10"/>
<text text-anchor="start" x="111.63" y="-15.4" font-family="Times-12" font-size="14.00"> &#160;Declarations</text>
<polygon fill="#8dd3c7" stroke="transparent" points="201,-10 201,-30 221,-30 221,-10 201,-10"/>
<text text-anchor="start" x="224.73" y="-15.4" font-family="Times-12" font-size="14.00"> &#160;Module</text>
<polygon fill="#80b1d3" stroke="transparent" points="287,-10 287,-30 307,-30 307,-10 287,-10"/>
<text text-anchor="start" x="310.78" y="-15.4" font-family="Times-12" font-size="14.00"> &#160;Bootstrap</text>
<polygon fill="#fdb462" stroke="transparent" points="384,-10 384,-30 404,-30 404,-10 384,-10"/>
<text text-anchor="start" x="407.67" y="-15.4" font-family="Times-12" font-size="14.00"> &#160;Providers</text>
<polygon fill="#fb8072" stroke="transparent" points="480,-10 480,-30 500,-30 500,-10 480,-10"/>
<text text-anchor="start" x="503.73" y="-15.4" font-family="Times-12" font-size="14.00"> &#160;Exports</text>
<g id="clust1" class="cluster">
<title>cluster_GalpaoModule</title>
<polygon fill="none" stroke="black" stroke-dasharray="1,5" points="8,-70 8,-195 636,-195 636,-70 8,-70"/>
</g>
<g id="clust2" class="cluster">
<title>cluster_GalpaoModule_declarations</title>
<polygon fill="none" stroke="black" points="490,-78 490,-130 628,-130 628,-78 490,-78"/>
</g>
<g id="clust4" class="cluster">
<title>cluster_GalpaoModule_imports</title>
<polygon fill="none" stroke="black" points="16,-78 16,-130 482,-130 482,-78 16,-78"/>
</g>
<!-- GalpaoComponent -->
<g id="node1" class="node">
<title>GalpaoComponent</title>
<polygon fill="#ffffb3" stroke="black" points="619.76,-122 498.24,-122 498.24,-86 619.76,-86 619.76,-122"/>
<text text-anchor="middle" x="559" y="-99.8" font-family="Times,serif" font-size="14.00">GalpaoComponent</text>
</g>
<!-- GalpaoModule -->
<g id="node2" class="node">
<title>GalpaoModule</title>
<polygon fill="#8dd3c7" stroke="black" points="380.98,-187 377.98,-191 356.98,-191 353.98,-187 281.02,-187 281.02,-151 380.98,-151 380.98,-187"/>
<text text-anchor="middle" x="331" y="-164.8" font-family="Times,serif" font-size="14.00">GalpaoModule</text>
</g>
<!-- GalpaoComponent&#45;&gt;GalpaoModule -->
<g id="edge1" class="edge">
<title>GalpaoComponent&#45;&gt;GalpaoModule</title>
<path fill="none" stroke="black" d="M559,-122.11C559,-141.34 559,-169 559,-169 559,-169 391.04,-169 391.04,-169"/>
<polygon fill="black" stroke="black" points="391.04,-165.5 381.04,-169 391.04,-172.5 391.04,-165.5"/>
</g>
<!-- FormGalpaoModule -->
<g id="node3" class="node">
<title>FormGalpaoModule</title>
<polygon fill="#8dd3c7" stroke="black" points="474.31,-122 471.31,-126 450.31,-126 447.31,-122 343.69,-122 343.69,-86 474.31,-86 474.31,-122"/>
<text text-anchor="middle" x="409" y="-99.8" font-family="Times,serif" font-size="14.00">FormGalpaoModule</text>
</g>
<!-- FormGalpaoModule&#45;&gt;GalpaoModule -->
<g id="edge2" class="edge">
<title>FormGalpaoModule&#45;&gt;GalpaoModule</title>
<path fill="none" stroke="black" d="M362.42,-122.11C362.42,-122.11 362.42,-140.99 362.42,-140.99"/>
<polygon fill="black" stroke="black" points="358.92,-140.99 362.42,-150.99 365.92,-140.99 358.92,-140.99"/>
</g>
<!-- GalpaoRoutingModule -->
<g id="node4" class="node">
<title>GalpaoRoutingModule</title>
<polygon fill="#8dd3c7" stroke="black" points="325.59,-122 322.59,-126 301.59,-126 298.59,-122 180.41,-122 180.41,-86 325.59,-86 325.59,-122"/>
<text text-anchor="middle" x="253" y="-99.8" font-family="Times,serif" font-size="14.00">GalpaoRoutingModule</text>
</g>
<!-- GalpaoRoutingModule&#45;&gt;GalpaoModule -->
<g id="edge3" class="edge">
<title>GalpaoRoutingModule&#45;&gt;GalpaoModule</title>
<path fill="none" stroke="black" d="M303.28,-122.11C303.28,-122.11 303.28,-140.99 303.28,-140.99"/>
<polygon fill="black" stroke="black" points="299.78,-140.99 303.28,-150.99 306.78,-140.99 299.78,-140.99"/>
</g>
<!-- TabelaGalpaoModule -->
<g id="node5" class="node">
<title>TabelaGalpaoModule</title>
<polygon fill="#8dd3c7" stroke="black" points="162.06,-122 159.06,-126 138.06,-126 135.06,-122 23.94,-122 23.94,-86 162.06,-86 162.06,-122"/>
<text text-anchor="middle" x="93" y="-99.8" font-family="Times,serif" font-size="14.00">TabelaGalpaoModule</text>
</g>
<!-- TabelaGalpaoModule&#45;&gt;GalpaoModule -->
<g id="edge4" class="edge">
<title>TabelaGalpaoModule&#45;&gt;GalpaoModule</title>
<path fill="none" stroke="black" d="M93,-122.11C93,-141.34 93,-169 93,-169 93,-169 270.82,-169 270.82,-169"/>
<polygon fill="black" stroke="black" points="270.82,-172.5 280.82,-169 270.82,-165.5 270.82,-172.5"/>
</g>
</g>
</svg>
