<?xml version="1.0" encoding="UTF-8" standalone="no"?>
<!DOCTYPE svg PUBLIC "-//W3C//DTD SVG 1.1//EN"
 "http://www.w3.org/Graphics/SVG/1.1/DTD/svg11.dtd">
<!-- Generated by graphviz version 2.47.0 (20210316.0004)
 -->
<!-- Title: dependencies Pages: 1 -->
<svg width="898pt" height="211pt"
 viewBox="0.00 0.00 898.00 211.00" xmlns="http://www.w3.org/2000/svg" xmlns:xlink="http://www.w3.org/1999/xlink">
<g id="graph0" class="graph" transform="scale(1 1) rotate(0) translate(4 207)">
<title>dependencies</title>
<polygon fill="white" stroke="transparent" points="-4,4 -4,-207 894,-207 894,4 -4,4"/>
<text text-anchor="start" x="424.01" y="-42.4" font-family="Times-12" font-weight="bold" font-size="14.00">Legend</text>
<polygon fill="#ffffb3" stroke="transparent" points="211,-10 211,-30 231,-30 231,-10 211,-10"/>
<text text-anchor="start" x="234.63" y="-15.4" font-family="Times-12" font-size="14.00"> &#160;Declarations</text>
<polygon fill="#8dd3c7" stroke="transparent" points="324,-10 324,-30 344,-30 344,-10 324,-10"/>
<text text-anchor="start" x="347.73" y="-15.4" font-family="Times-12" font-size="14.00"> &#160;Module</text>
<polygon fill="#80b1d3" stroke="transparent" points="410,-10 410,-30 430,-30 430,-10 410,-10"/>
<text text-anchor="start" x="433.78" y="-15.4" font-family="Times-12" font-size="14.00"> &#160;Bootstrap</text>
<polygon fill="#fdb462" stroke="transparent" points="507,-10 507,-30 527,-30 527,-10 507,-10"/>
<text text-anchor="start" x="530.67" y="-15.4" font-family="Times-12" font-size="14.00"> &#160;Providers</text>
<polygon fill="#fb8072" stroke="transparent" points="603,-10 603,-30 623,-30 623,-10 603,-10"/>
<text text-anchor="start" x="626.73" y="-15.4" font-family="Times-12" font-size="14.00"> &#160;Exports</text>
<g id="clust1" class="cluster">
<title>cluster_ClassificacaoNcmModule</title>
<polygon fill="none" stroke="black" stroke-dasharray="1,5" points="8,-70 8,-195 882,-195 882,-70 8,-70"/>
</g>
<g id="clust2" class="cluster">
<title>cluster_ClassificacaoNcmModule_declarations</title>
<polygon fill="none" stroke="black" points="674,-78 674,-130 874,-130 874,-78 674,-78"/>
</g>
<g id="clust4" class="cluster">
<title>cluster_ClassificacaoNcmModule_imports</title>
<polygon fill="none" stroke="black" points="16,-78 16,-130 666,-130 666,-78 16,-78"/>
</g>
<!-- ClassificacaoNcmComponent -->
<g id="node1" class="node">
<title>ClassificacaoNcmComponent</title>
<polygon fill="#ffffb3" stroke="black" points="865.68,-122 682.32,-122 682.32,-86 865.68,-86 865.68,-122"/>
<text text-anchor="middle" x="774" y="-99.8" font-family="Times,serif" font-size="14.00">ClassificacaoNcmComponent</text>
</g>
<!-- ClassificacaoNcmModule -->
<g id="node2" class="node">
<title>ClassificacaoNcmModule</title>
<polygon fill="#8dd3c7" stroke="black" points="526.89,-187 523.89,-191 502.89,-191 499.89,-187 365.11,-187 365.11,-151 526.89,-151 526.89,-187"/>
<text text-anchor="middle" x="446" y="-164.8" font-family="Times,serif" font-size="14.00">ClassificacaoNcmModule</text>
</g>
<!-- ClassificacaoNcmComponent&#45;&gt;ClassificacaoNcmModule -->
<g id="edge1" class="edge">
<title>ClassificacaoNcmComponent&#45;&gt;ClassificacaoNcmModule</title>
<path fill="none" stroke="black" d="M774,-122.11C774,-141.34 774,-169 774,-169 774,-169 537.08,-169 537.08,-169"/>
<polygon fill="black" stroke="black" points="537.08,-165.5 527.08,-169 537.08,-172.5 537.08,-165.5"/>
</g>
<!-- ClassificacaoNcmRoutingModule -->
<g id="node3" class="node">
<title>ClassificacaoNcmRoutingModule</title>
<polygon fill="#8dd3c7" stroke="black" points="658.01,-122 655.01,-126 634.01,-126 631.01,-122 451.99,-122 451.99,-86 658.01,-86 658.01,-122"/>
<text text-anchor="middle" x="555" y="-99.8" font-family="Times,serif" font-size="14.00">ClassificacaoNcmRoutingModule</text>
</g>
<!-- ClassificacaoNcmRoutingModule&#45;&gt;ClassificacaoNcmModule -->
<g id="edge2" class="edge">
<title>ClassificacaoNcmRoutingModule&#45;&gt;ClassificacaoNcmModule</title>
<path fill="none" stroke="black" d="M489.22,-122.11C489.22,-122.11 489.22,-140.99 489.22,-140.99"/>
<polygon fill="black" stroke="black" points="485.72,-140.99 489.22,-150.99 492.72,-140.99 485.72,-140.99"/>
</g>
<!-- FormClassificacaoNcmModule -->
<g id="node4" class="node">
<title>FormClassificacaoNcmModule</title>
<polygon fill="#8dd3c7" stroke="black" points="433.73,-122 430.73,-126 409.73,-126 406.73,-122 242.27,-122 242.27,-86 433.73,-86 433.73,-122"/>
<text text-anchor="middle" x="338" y="-99.8" font-family="Times,serif" font-size="14.00">FormClassificacaoNcmModule</text>
</g>
<!-- FormClassificacaoNcmModule&#45;&gt;ClassificacaoNcmModule -->
<g id="edge3" class="edge">
<title>FormClassificacaoNcmModule&#45;&gt;ClassificacaoNcmModule</title>
<path fill="none" stroke="black" d="M399.58,-122.11C399.58,-122.11 399.58,-140.99 399.58,-140.99"/>
<polygon fill="black" stroke="black" points="396.08,-140.99 399.58,-150.99 403.08,-140.99 396.08,-140.99"/>
</g>
<!-- TabelaClassificacaoNcmModule -->
<g id="node5" class="node">
<title>TabelaClassificacaoNcmModule</title>
<polygon fill="#8dd3c7" stroke="black" points="223.98,-122 220.98,-126 199.98,-126 196.98,-122 24.02,-122 24.02,-86 223.98,-86 223.98,-122"/>
<text text-anchor="middle" x="124" y="-99.8" font-family="Times,serif" font-size="14.00">TabelaClassificacaoNcmModule</text>
</g>
<!-- TabelaClassificacaoNcmModule&#45;&gt;ClassificacaoNcmModule -->
<g id="edge4" class="edge">
<title>TabelaClassificacaoNcmModule&#45;&gt;ClassificacaoNcmModule</title>
<path fill="none" stroke="black" d="M124,-122.11C124,-141.34 124,-169 124,-169 124,-169 355.16,-169 355.16,-169"/>
<polygon fill="black" stroke="black" points="355.16,-172.5 365.16,-169 355.16,-165.5 355.16,-172.5"/>
</g>
</g>
</svg>
