<?xml version="1.0" encoding="UTF-8" standalone="no"?>
<!DOCTYPE svg PUBLIC "-//W3C//DTD SVG 1.1//EN"
 "http://www.w3.org/Graphics/SVG/1.1/DTD/svg11.dtd">
<!-- Generated by graphviz version 2.47.0 (20210316.0004)
 -->
<!-- Title: dependencies Pages: 1 -->
<svg width="504pt" height="211pt"
 viewBox="0.00 0.00 504.00 211.00" xmlns="http://www.w3.org/2000/svg" xmlns:xlink="http://www.w3.org/1999/xlink">
<g id="graph0" class="graph" transform="scale(1 1) rotate(0) translate(4 207)">
<title>dependencies</title>
<polygon fill="white" stroke="transparent" points="-4,4 -4,-207 500,-207 500,4 -4,4"/>
<text text-anchor="start" x="227.01" y="-42.4" font-family="Times-12" font-weight="bold" font-size="14.00">Legend</text>
<polygon fill="#ffffb3" stroke="transparent" points="14,-10 14,-30 34,-30 34,-10 14,-10"/>
<text text-anchor="start" x="37.63" y="-15.4" font-family="Times-12" font-size="14.00"> &#160;Declarations</text>
<polygon fill="#8dd3c7" stroke="transparent" points="127,-10 127,-30 147,-30 147,-10 127,-10"/>
<text text-anchor="start" x="150.73" y="-15.4" font-family="Times-12" font-size="14.00"> &#160;Module</text>
<polygon fill="#80b1d3" stroke="transparent" points="213,-10 213,-30 233,-30 233,-10 213,-10"/>
<text text-anchor="start" x="236.78" y="-15.4" font-family="Times-12" font-size="14.00"> &#160;Bootstrap</text>
<polygon fill="#fdb462" stroke="transparent" points="310,-10 310,-30 330,-30 330,-10 310,-10"/>
<text text-anchor="start" x="333.67" y="-15.4" font-family="Times-12" font-size="14.00"> &#160;Providers</text>
<polygon fill="#fb8072" stroke="transparent" points="406,-10 406,-30 426,-30 426,-10 406,-10"/>
<text text-anchor="start" x="429.73" y="-15.4" font-family="Times-12" font-size="14.00"> &#160;Exports</text>
<g id="clust1" class="cluster">
<title>cluster_RelatorioModule</title>
<polygon fill="none" stroke="black" stroke-dasharray="1,5" points="75,-70 75,-195 421,-195 421,-70 75,-70"/>
</g>
<g id="clust2" class="cluster">
<title>cluster_RelatorioModule_declarations</title>
<polygon fill="none" stroke="black" points="263,-78 263,-130 413,-130 413,-78 263,-78"/>
</g>
<g id="clust4" class="cluster">
<title>cluster_RelatorioModule_imports</title>
<polygon fill="none" stroke="black" points="83,-78 83,-130 255,-130 255,-78 83,-78"/>
</g>
<!-- TemplateComponent -->
<g id="node1" class="node">
<title>TemplateComponent</title>
<polygon fill="#ffffb3" stroke="black" points="405.2,-122 270.8,-122 270.8,-86 405.2,-86 405.2,-122"/>
<text text-anchor="middle" x="338" y="-99.8" font-family="Times,serif" font-size="14.00">TemplateComponent</text>
</g>
<!-- RelatorioModule -->
<g id="node2" class="node">
<title>RelatorioModule</title>
<polygon fill="#8dd3c7" stroke="black" points="308.65,-187 305.65,-191 284.65,-191 281.65,-187 197.35,-187 197.35,-151 308.65,-151 308.65,-187"/>
<text text-anchor="middle" x="253" y="-164.8" font-family="Times,serif" font-size="14.00">RelatorioModule</text>
</g>
<!-- TemplateComponent&#45;&gt;RelatorioModule -->
<g id="edge1" class="edge">
<title>TemplateComponent&#45;&gt;RelatorioModule</title>
<path fill="none" stroke="black" d="M289.86,-122.11C289.86,-122.11 289.86,-140.99 289.86,-140.99"/>
<polygon fill="black" stroke="black" points="286.36,-140.99 289.86,-150.99 293.36,-140.99 286.36,-140.99"/>
</g>
<!-- RelatorioRoutingModule -->
<g id="node3" class="node">
<title>RelatorioRoutingModule</title>
<polygon fill="#8dd3c7" stroke="black" points="247.27,-122 244.27,-126 223.27,-126 220.27,-122 90.73,-122 90.73,-86 247.27,-86 247.27,-122"/>
<text text-anchor="middle" x="169" y="-99.8" font-family="Times,serif" font-size="14.00">RelatorioRoutingModule</text>
</g>
<!-- RelatorioRoutingModule&#45;&gt;RelatorioModule -->
<g id="edge2" class="edge">
<title>RelatorioRoutingModule&#45;&gt;RelatorioModule</title>
<path fill="none" stroke="black" d="M222.28,-122.11C222.28,-122.11 222.28,-140.99 222.28,-140.99"/>
<polygon fill="black" stroke="black" points="218.78,-140.99 222.28,-150.99 225.78,-140.99 218.78,-140.99"/>
</g>
</g>
</svg>
