<?xml version="1.0" encoding="UTF-8" standalone="no"?>
<!DOCTYPE svg PUBLIC "-//W3C//DTD SVG 1.1//EN"
 "http://www.w3.org/Graphics/SVG/1.1/DTD/svg11.dtd">
<!-- Generated by graphviz version 2.47.0 (20210316.0004)
 -->
<!-- Title: dependencies Pages: 1 -->
<svg width="504pt" height="284pt"
 viewBox="0.00 0.00 504.00 284.00" xmlns="http://www.w3.org/2000/svg" xmlns:xlink="http://www.w3.org/1999/xlink">
<g id="graph0" class="graph" transform="scale(1 1) rotate(0) translate(4 280)">
<title>dependencies</title>
<polygon fill="white" stroke="transparent" points="-4,4 -4,-280 500,-280 500,4 -4,4"/>
<text text-anchor="start" x="227.01" y="-42.4" font-family="Times-12" font-weight="bold" font-size="14.00">Legend</text>
<polygon fill="#ffffb3" stroke="transparent" points="14,-10 14,-30 34,-30 34,-10 14,-10"/>
<text text-anchor="start" x="37.63" y="-15.4" font-family="Times-12" font-size="14.00"> &#160;Declarations</text>
<polygon fill="#8dd3c7" stroke="transparent" points="127,-10 127,-30 147,-30 147,-10 127,-10"/>
<text text-anchor="start" x="150.73" y="-15.4" font-family="Times-12" font-size="14.00"> &#160;Module</text>
<polygon fill="#80b1d3" stroke="transparent" points="213,-10 213,-30 233,-30 233,-10 213,-10"/>
<text text-anchor="start" x="236.78" y="-15.4" font-family="Times-12" font-size="14.00"> &#160;Bootstrap</text>
<polygon fill="#fdb462" stroke="transparent" points="310,-10 310,-30 330,-30 330,-10 310,-10"/>
<text text-anchor="start" x="333.67" y="-15.4" font-family="Times-12" font-size="14.00"> &#160;Providers</text>
<polygon fill="#fb8072" stroke="transparent" points="406,-10 406,-30 426,-30 426,-10 406,-10"/>
<text text-anchor="start" x="429.73" y="-15.4" font-family="Times-12" font-size="14.00"> &#160;Exports</text>
<g id="clust1" class="cluster">
<title>cluster_AlertModule</title>
<polygon fill="none" stroke="black" stroke-dasharray="1,5" points="14,-70 14,-268 482,-268 482,-70 14,-70"/>
</g>
<g id="clust4" class="cluster">
<title>cluster_AlertModule_imports</title>
<polygon fill="none" stroke="black" points="198,-78 198,-130 474,-130 474,-78 198,-78"/>
</g>
<g id="clust2" class="cluster">
<title>cluster_AlertModule_declarations</title>
<polygon fill="none" stroke="black" points="22,-78 22,-130 190,-130 190,-78 22,-78"/>
</g>
<g id="clust5" class="cluster">
<title>cluster_AlertModule_exports</title>
<polygon fill="none" stroke="black" points="181,-208 181,-260 353,-260 353,-208 181,-208"/>
</g>
<!-- AlertDefaultComponent -->
<g id="node1" class="node">
<title>AlertDefaultComponent</title>
<polygon fill="#ffffb3" stroke="black" points="182.07,-122 29.93,-122 29.93,-86 182.07,-86 182.07,-122"/>
<text text-anchor="middle" x="106" y="-99.8" font-family="Times,serif" font-size="14.00">AlertDefaultComponent</text>
</g>
<!-- AlertModule -->
<g id="node2" class="node">
<title>AlertModule</title>
<polygon fill="#8dd3c7" stroke="black" points="311.31,-187 308.31,-191 287.31,-191 284.31,-187 222.69,-187 222.69,-151 311.31,-151 311.31,-187"/>
<text text-anchor="middle" x="267" y="-164.8" font-family="Times,serif" font-size="14.00">AlertModule</text>
</g>
<!-- AlertDefaultComponent&#45;&gt;AlertModule -->
<g id="edge1" class="edge">
<title>AlertDefaultComponent&#45;&gt;AlertModule</title>
<path fill="none" stroke="black" d="M106,-122.11C106,-141.34 106,-169 106,-169 106,-169 212.58,-169 212.58,-169"/>
<polygon fill="black" stroke="black" points="212.58,-172.5 222.58,-169 212.58,-165.5 212.58,-172.5"/>
</g>
<!-- AlertDefaultComponent  -->
<g id="node5" class="node">
<title>AlertDefaultComponent </title>
<polygon fill="#fb8072" stroke="black" points="344.57,-252 189.43,-252 189.43,-216 344.57,-216 344.57,-252"/>
<text text-anchor="middle" x="267" y="-229.8" font-family="Times,serif" font-size="14.00">AlertDefaultComponent </text>
</g>
<!-- AlertModule&#45;&gt;AlertDefaultComponent  -->
<g id="edge4" class="edge">
<title>AlertModule&#45;&gt;AlertDefaultComponent </title>
<path fill="none" stroke="black" stroke-dasharray="5,2" d="M267,-187.11C267,-187.11 267,-205.99 267,-205.99"/>
<polygon fill="black" stroke="black" points="263.5,-205.99 267,-215.99 270.5,-205.99 263.5,-205.99"/>
</g>
<!-- ButtonComponent -->
<g id="node3" class="node">
<title>ButtonComponent</title>
<polygon fill="#8dd3c7" stroke="black" points="465.95,-122 462.95,-126 441.95,-126 438.95,-122 346.05,-122 346.05,-86 465.95,-86 465.95,-122"/>
<text text-anchor="middle" x="406" y="-99.8" font-family="Times,serif" font-size="14.00">ButtonComponent</text>
</g>
<!-- ButtonComponent&#45;&gt;AlertModule -->
<g id="edge2" class="edge">
<title>ButtonComponent&#45;&gt;AlertModule</title>
<path fill="none" stroke="black" d="M406,-122.11C406,-141.34 406,-169 406,-169 406,-169 321.36,-169 321.36,-169"/>
<polygon fill="black" stroke="black" points="321.36,-165.5 311.36,-169 321.36,-172.5 321.36,-165.5"/>
</g>
<!-- CardTenaxModule -->
<g id="node4" class="node">
<title>CardTenaxModule</title>
<polygon fill="#8dd3c7" stroke="black" points="327.74,-122 324.74,-126 303.74,-126 300.74,-122 206.26,-122 206.26,-86 327.74,-86 327.74,-122"/>
<text text-anchor="middle" x="267" y="-99.8" font-family="Times,serif" font-size="14.00">CardTenaxModule</text>
</g>
<!-- CardTenaxModule&#45;&gt;AlertModule -->
<g id="edge3" class="edge">
<title>CardTenaxModule&#45;&gt;AlertModule</title>
<path fill="none" stroke="black" d="M267,-122.11C267,-122.11 267,-140.99 267,-140.99"/>
<polygon fill="black" stroke="black" points="263.5,-140.99 267,-150.99 270.5,-140.99 263.5,-140.99"/>
</g>
</g>
</svg>
