<?xml version="1.0" encoding="UTF-8" standalone="no"?>
<!DOCTYPE svg PUBLIC "-//W3C//DTD SVG 1.1//EN"
 "http://www.w3.org/Graphics/SVG/1.1/DTD/svg11.dtd">
<!-- Generated by graphviz version 2.47.0 (20210316.0004)
 -->
<!-- Title: dependencies Pages: 1 -->
<svg width="504pt" height="349pt"
 viewBox="0.00 0.00 504.00 349.00" xmlns="http://www.w3.org/2000/svg" xmlns:xlink="http://www.w3.org/1999/xlink">
<g id="graph0" class="graph" transform="scale(1 1) rotate(0) translate(4 345)">
<title>dependencies</title>
<polygon fill="white" stroke="transparent" points="-4,4 -4,-345 500,-345 500,4 -4,4"/>
<text text-anchor="start" x="227.01" y="-42.4" font-family="Times-12" font-weight="bold" font-size="14.00">Legend</text>
<polygon fill="#ffffb3" stroke="transparent" points="14,-10 14,-30 34,-30 34,-10 14,-10"/>
<text text-anchor="start" x="37.63" y="-15.4" font-family="Times-12" font-size="14.00"> &#160;Declarations</text>
<polygon fill="#8dd3c7" stroke="transparent" points="127,-10 127,-30 147,-30 147,-10 127,-10"/>
<text text-anchor="start" x="150.73" y="-15.4" font-family="Times-12" font-size="14.00"> &#160;Module</text>
<polygon fill="#80b1d3" stroke="transparent" points="213,-10 213,-30 233,-30 233,-10 213,-10"/>
<text text-anchor="start" x="236.78" y="-15.4" font-family="Times-12" font-size="14.00"> &#160;Bootstrap</text>
<polygon fill="#fdb462" stroke="transparent" points="310,-10 310,-30 330,-30 330,-10 310,-10"/>
<text text-anchor="start" x="333.67" y="-15.4" font-family="Times-12" font-size="14.00"> &#160;Providers</text>
<polygon fill="#fb8072" stroke="transparent" points="406,-10 406,-30 426,-30 426,-10 406,-10"/>
<text text-anchor="start" x="429.73" y="-15.4" font-family="Times-12" font-size="14.00"> &#160;Exports</text>
<g id="clust1" class="cluster">
<title>cluster_TabelaSubGrupoModule</title>
<polygon fill="none" stroke="black" stroke-dasharray="1,5" points="28.5,-70 28.5,-333 467.5,-333 467.5,-70 28.5,-70"/>
</g>
<g id="clust2" class="cluster">
<title>cluster_TabelaSubGrupoModule_declarations</title>
<polygon fill="none" stroke="black" points="208.5,-143 208.5,-195 400.5,-195 400.5,-143 208.5,-143"/>
</g>
<g id="clust3" class="cluster">
<title>cluster_TabelaSubGrupoModule_TabelaSubGrupoComponent_providers</title>
<polygon fill="none" stroke="black" points="36.5,-78 36.5,-130 459.5,-130 459.5,-78 36.5,-78"/>
</g>
<g id="clust5" class="cluster">
<title>cluster_TabelaSubGrupoModule_exports</title>
<polygon fill="none" stroke="black" points="96.5,-273 96.5,-325 292.5,-325 292.5,-273 96.5,-273"/>
</g>
<g id="clust4" class="cluster">
<title>cluster_TabelaSubGrupoModule_imports</title>
<polygon fill="none" stroke="black" points="86.5,-143 86.5,-195 200.5,-195 200.5,-143 86.5,-143"/>
</g>
<!-- TabelaSubGrupoComponent -->
<g id="node1" class="node">
<title>TabelaSubGrupoComponent</title>
<polygon fill="#ffffb3" stroke="black" points="392.97,-187 216.03,-187 216.03,-151 392.97,-151 392.97,-187"/>
<text text-anchor="middle" x="304.5" y="-164.8" font-family="Times,serif" font-size="14.00">TabelaSubGrupoComponent</text>
</g>
<!-- TabelaSubGrupoModule -->
<g id="node2" class="node">
<title>TabelaSubGrupoModule</title>
<polygon fill="#8dd3c7" stroke="black" points="272.19,-252 269.19,-256 248.19,-256 245.19,-252 116.81,-252 116.81,-216 272.19,-216 272.19,-252"/>
<text text-anchor="middle" x="194.5" y="-229.8" font-family="Times,serif" font-size="14.00">TabelaSubGrupoModule</text>
</g>
<!-- TabelaSubGrupoComponent&#45;&gt;TabelaSubGrupoModule -->
<g id="edge1" class="edge">
<title>TabelaSubGrupoComponent&#45;&gt;TabelaSubGrupoModule</title>
<path fill="none" stroke="black" d="M244.05,-187.11C244.05,-187.11 244.05,-205.99 244.05,-205.99"/>
<polygon fill="black" stroke="black" points="240.55,-205.99 244.05,-215.99 247.55,-205.99 240.55,-205.99"/>
</g>
<!-- TabelaSubGrupoComponent  -->
<g id="node6" class="node">
<title>TabelaSubGrupoComponent </title>
<polygon fill="#fb8072" stroke="black" points="284.97,-317 104.03,-317 104.03,-281 284.97,-281 284.97,-317"/>
<text text-anchor="middle" x="194.5" y="-294.8" font-family="Times,serif" font-size="14.00">TabelaSubGrupoComponent </text>
</g>
<!-- TabelaSubGrupoModule&#45;&gt;TabelaSubGrupoComponent  -->
<g id="edge5" class="edge">
<title>TabelaSubGrupoModule&#45;&gt;TabelaSubGrupoComponent </title>
<path fill="none" stroke="black" stroke-dasharray="5,2" d="M194.5,-252.11C194.5,-252.11 194.5,-270.99 194.5,-270.99"/>
<polygon fill="black" stroke="black" points="191,-270.99 194.5,-280.99 198,-270.99 191,-270.99"/>
</g>
<!-- DataServiceGeneric -->
<g id="node3" class="node">
<title>DataServiceGeneric</title>
<ellipse fill="#fdb462" stroke="black" cx="362.5" cy="-104" rx="88.56" ry="18"/>
<text text-anchor="middle" x="362.5" y="-99.8" font-family="Times,serif" font-size="14.00">DataServiceGeneric</text>
</g>
<!-- DataServiceGeneric&#45;&gt;TabelaSubGrupoComponent -->
<g id="edge2" class="edge">
<title>DataServiceGeneric&#45;&gt;TabelaSubGrupoComponent</title>
<path fill="none" stroke="black" d="M333.35,-121.08C333.35,-121.08 333.35,-140.9 333.35,-140.9"/>
<polygon fill="black" stroke="black" points="329.85,-140.9 333.35,-150.9 336.85,-140.9 329.85,-140.9"/>
</g>
<!-- { provide: , useValue: &#160;} -->
<g id="node4" class="node">
<title>{ provide: , useValue: &#160;}</title>
<ellipse fill="#fdb462" stroke="black" cx="150.5" cy="-104" rx="105.67" ry="18"/>
<text text-anchor="middle" x="150.5" y="-99.8" font-family="Times,serif" font-size="14.00">{ provide: , useValue: &#160;}</text>
</g>
<!-- { provide: , useValue: &#160;}&#45;&gt;TabelaSubGrupoComponent -->
<g id="edge3" class="edge">
<title>{ provide: , useValue: &#160;}&#45;&gt;TabelaSubGrupoComponent</title>
<path fill="none" stroke="black" d="M236.05,-114.73C236.05,-114.73 236.05,-140.87 236.05,-140.87"/>
<polygon fill="black" stroke="black" points="232.55,-140.87 236.05,-150.87 239.55,-140.87 232.55,-140.87"/>
</g>
<!-- SharedModule -->
<g id="node5" class="node">
<title>SharedModule</title>
<polygon fill="#8dd3c7" stroke="black" points="192.92,-187 189.92,-191 168.92,-191 165.92,-187 94.08,-187 94.08,-151 192.92,-151 192.92,-187"/>
<text text-anchor="middle" x="143.5" y="-164.8" font-family="Times,serif" font-size="14.00">SharedModule</text>
</g>
<!-- SharedModule&#45;&gt;TabelaSubGrupoModule -->
<g id="edge4" class="edge">
<title>SharedModule&#45;&gt;TabelaSubGrupoModule</title>
<path fill="none" stroke="black" d="M154.81,-187.11C154.81,-187.11 154.81,-205.99 154.81,-205.99"/>
<polygon fill="black" stroke="black" points="151.31,-205.99 154.81,-215.99 158.31,-205.99 151.31,-205.99"/>
</g>
</g>
</svg>
