<?xml version="1.0" encoding="UTF-8" standalone="no"?>
<!DOCTYPE svg PUBLIC "-//W3C//DTD SVG 1.1//EN"
 "http://www.w3.org/Graphics/SVG/1.1/DTD/svg11.dtd">
<!-- Generated by graphviz version 2.47.0 (20210316.0004)
 -->
<!-- Title: dependencies Pages: 1 -->
<svg width="1266pt" height="211pt"
 viewBox="0.00 0.00 1266.00 211.00" xmlns="http://www.w3.org/2000/svg" xmlns:xlink="http://www.w3.org/1999/xlink">
<g id="graph0" class="graph" transform="scale(1 1) rotate(0) translate(4 207)">
<title>dependencies</title>
<polygon fill="white" stroke="transparent" points="-4,4 -4,-207 1262,-207 1262,4 -4,4"/>
<text text-anchor="start" x="608.01" y="-42.4" font-family="Times-12" font-weight="bold" font-size="14.00">Legend</text>
<polygon fill="#ffffb3" stroke="transparent" points="395,-10 395,-30 415,-30 415,-10 395,-10"/>
<text text-anchor="start" x="418.63" y="-15.4" font-family="Times-12" font-size="14.00"> &#160;Declarations</text>
<polygon fill="#8dd3c7" stroke="transparent" points="508,-10 508,-30 528,-30 528,-10 508,-10"/>
<text text-anchor="start" x="531.73" y="-15.4" font-family="Times-12" font-size="14.00"> &#160;Module</text>
<polygon fill="#80b1d3" stroke="transparent" points="594,-10 594,-30 614,-30 614,-10 594,-10"/>
<text text-anchor="start" x="617.78" y="-15.4" font-family="Times-12" font-size="14.00"> &#160;Bootstrap</text>
<polygon fill="#fdb462" stroke="transparent" points="691,-10 691,-30 711,-30 711,-10 691,-10"/>
<text text-anchor="start" x="714.67" y="-15.4" font-family="Times-12" font-size="14.00"> &#160;Providers</text>
<polygon fill="#fb8072" stroke="transparent" points="787,-10 787,-30 807,-30 807,-10 787,-10"/>
<text text-anchor="start" x="810.73" y="-15.4" font-family="Times-12" font-size="14.00"> &#160;Exports</text>
<g id="clust1" class="cluster">
<title>cluster_RelatorioEntradaMaterialSegmentoModule</title>
<polygon fill="none" stroke="black" stroke-dasharray="1,5" points="8,-70 8,-195 1250,-195 1250,-70 8,-70"/>
</g>
<g id="clust4" class="cluster">
<title>cluster_RelatorioEntradaMaterialSegmentoModule_imports</title>
<polygon fill="none" stroke="black" points="320,-78 320,-130 1242,-130 1242,-78 320,-78"/>
</g>
<g id="clust2" class="cluster">
<title>cluster_RelatorioEntradaMaterialSegmentoModule_declarations</title>
<polygon fill="none" stroke="black" points="16,-78 16,-130 312,-130 312,-78 16,-78"/>
</g>
<!-- RelatorioEntradaMaterialSegmentoComponent -->
<g id="node1" class="node">
<title>RelatorioEntradaMaterialSegmentoComponent</title>
<polygon fill="#ffffb3" stroke="black" points="304.38,-122 23.62,-122 23.62,-86 304.38,-86 304.38,-122"/>
<text text-anchor="middle" x="164" y="-99.8" font-family="Times,serif" font-size="14.00">RelatorioEntradaMaterialSegmentoComponent</text>
</g>
<!-- RelatorioEntradaMaterialSegmentoModule -->
<g id="node2" class="node">
<title>RelatorioEntradaMaterialSegmentoModule</title>
<polygon fill="#8dd3c7" stroke="black" points="813.1,-187 810.1,-191 789.1,-191 786.1,-187 554.9,-187 554.9,-151 813.1,-151 813.1,-187"/>
<text text-anchor="middle" x="684" y="-164.8" font-family="Times,serif" font-size="14.00">RelatorioEntradaMaterialSegmentoModule</text>
</g>
<!-- RelatorioEntradaMaterialSegmentoComponent&#45;&gt;RelatorioEntradaMaterialSegmentoModule -->
<g id="edge1" class="edge">
<title>RelatorioEntradaMaterialSegmentoComponent&#45;&gt;RelatorioEntradaMaterialSegmentoModule</title>
<path fill="none" stroke="black" d="M164,-122.28C164,-143.32 164,-175 164,-175 164,-175 544.79,-175 544.79,-175"/>
<polygon fill="black" stroke="black" points="544.79,-178.5 554.79,-175 544.79,-171.5 544.79,-178.5"/>
</g>
<!-- ButtonComponent -->
<g id="node3" class="node">
<title>ButtonComponent</title>
<polygon fill="#8dd3c7" stroke="black" points="1233.95,-122 1230.95,-126 1209.95,-126 1206.95,-122 1114.05,-122 1114.05,-86 1233.95,-86 1233.95,-122"/>
<text text-anchor="middle" x="1174" y="-99.8" font-family="Times,serif" font-size="14.00">ButtonComponent</text>
</g>
<!-- ButtonComponent&#45;&gt;RelatorioEntradaMaterialSegmentoModule -->
<g id="edge2" class="edge">
<title>ButtonComponent&#45;&gt;RelatorioEntradaMaterialSegmentoModule</title>
<path fill="none" stroke="black" d="M1174,-122.28C1174,-143.32 1174,-175 1174,-175 1174,-175 823.38,-175 823.38,-175"/>
<polygon fill="black" stroke="black" points="823.38,-171.5 813.38,-175 823.38,-178.5 823.38,-171.5"/>
</g>
<!-- CardTenaxModule -->
<g id="node4" class="node">
<title>CardTenaxModule</title>
<polygon fill="#8dd3c7" stroke="black" points="1095.74,-122 1092.74,-126 1071.74,-126 1068.74,-122 974.26,-122 974.26,-86 1095.74,-86 1095.74,-122"/>
<text text-anchor="middle" x="1035" y="-99.8" font-family="Times,serif" font-size="14.00">CardTenaxModule</text>
</g>
<!-- CardTenaxModule&#45;&gt;RelatorioEntradaMaterialSegmentoModule -->
<g id="edge3" class="edge">
<title>CardTenaxModule&#45;&gt;RelatorioEntradaMaterialSegmentoModule</title>
<path fill="none" stroke="black" d="M1035,-122.02C1035,-139.37 1035,-163 1035,-163 1035,-163 823.2,-163 823.2,-163"/>
<polygon fill="black" stroke="black" points="823.2,-159.5 813.2,-163 823.2,-166.5 823.2,-159.5"/>
</g>
<!-- ComboRelatorioTipoGrupoSegmentoComponent -->
<g id="node5" class="node">
<title>ComboRelatorioTipoGrupoSegmentoComponent</title>
<polygon fill="#8dd3c7" stroke="black" points="956.36,-122 953.36,-126 932.36,-126 929.36,-122 663.64,-122 663.64,-86 956.36,-86 956.36,-122"/>
<text text-anchor="middle" x="810" y="-99.8" font-family="Times,serif" font-size="14.00">ComboRelatorioTipoGrupoSegmentoComponent</text>
</g>
<!-- ComboRelatorioTipoGrupoSegmentoComponent&#45;&gt;RelatorioEntradaMaterialSegmentoModule -->
<g id="edge4" class="edge">
<title>ComboRelatorioTipoGrupoSegmentoComponent&#45;&gt;RelatorioEntradaMaterialSegmentoModule</title>
<path fill="none" stroke="black" d="M738.43,-122.11C738.43,-122.11 738.43,-140.99 738.43,-140.99"/>
<polygon fill="black" stroke="black" points="734.93,-140.99 738.43,-150.99 741.93,-140.99 734.93,-140.99"/>
</g>
<!-- ComboTipoLoteComponent -->
<g id="node6" class="node">
<title>ComboTipoLoteComponent</title>
<polygon fill="#8dd3c7" stroke="black" points="645.16,-122 642.16,-126 621.16,-126 618.16,-122 470.84,-122 470.84,-86 645.16,-86 645.16,-122"/>
<text text-anchor="middle" x="558" y="-99.8" font-family="Times,serif" font-size="14.00">ComboTipoLoteComponent</text>
</g>
<!-- ComboTipoLoteComponent&#45;&gt;RelatorioEntradaMaterialSegmentoModule -->
<g id="edge5" class="edge">
<title>ComboTipoLoteComponent&#45;&gt;RelatorioEntradaMaterialSegmentoModule</title>
<path fill="none" stroke="black" d="M600.02,-122.11C600.02,-122.11 600.02,-140.99 600.02,-140.99"/>
<polygon fill="black" stroke="black" points="596.52,-140.99 600.02,-150.99 603.52,-140.99 596.52,-140.99"/>
</g>
<!-- PeriodoComponent -->
<g id="node7" class="node">
<title>PeriodoComponent</title>
<polygon fill="#8dd3c7" stroke="black" points="452.38,-122 449.38,-126 428.38,-126 425.38,-122 327.62,-122 327.62,-86 452.38,-86 452.38,-122"/>
<text text-anchor="middle" x="390" y="-99.8" font-family="Times,serif" font-size="14.00">PeriodoComponent</text>
</g>
<!-- PeriodoComponent&#45;&gt;RelatorioEntradaMaterialSegmentoModule -->
<g id="edge6" class="edge">
<title>PeriodoComponent&#45;&gt;RelatorioEntradaMaterialSegmentoModule</title>
<path fill="none" stroke="black" d="M390,-122.02C390,-139.37 390,-163 390,-163 390,-163 544.62,-163 544.62,-163"/>
<polygon fill="black" stroke="black" points="544.62,-166.5 554.62,-163 544.62,-159.5 544.62,-166.5"/>
</g>
</g>
</svg>
