<?xml version="1.0" encoding="UTF-8" standalone="no"?>
<!DOCTYPE svg PUBLIC "-//W3C//DTD SVG 1.1//EN"
 "http://www.w3.org/Graphics/SVG/1.1/DTD/svg11.dtd">
<!-- Generated by graphviz version 2.47.0 (20210316.0004)
 -->
<!-- Title: dependencies Pages: 1 -->
<svg width="1013pt" height="211pt"
 viewBox="0.00 0.00 1013.00 211.00" xmlns="http://www.w3.org/2000/svg" xmlns:xlink="http://www.w3.org/1999/xlink">
<g id="graph0" class="graph" transform="scale(1 1) rotate(0) translate(4 207)">
<title>dependencies</title>
<polygon fill="white" stroke="transparent" points="-4,4 -4,-207 1009,-207 1009,4 -4,4"/>
<text text-anchor="start" x="481.51" y="-42.4" font-family="Times-12" font-weight="bold" font-size="14.00">Legend</text>
<polygon fill="#ffffb3" stroke="transparent" points="268.5,-10 268.5,-30 288.5,-30 288.5,-10 268.5,-10"/>
<text text-anchor="start" x="292.13" y="-15.4" font-family="Times-12" font-size="14.00"> &#160;Declarations</text>
<polygon fill="#8dd3c7" stroke="transparent" points="381.5,-10 381.5,-30 401.5,-30 401.5,-10 381.5,-10"/>
<text text-anchor="start" x="405.23" y="-15.4" font-family="Times-12" font-size="14.00"> &#160;Module</text>
<polygon fill="#80b1d3" stroke="transparent" points="467.5,-10 467.5,-30 487.5,-30 487.5,-10 467.5,-10"/>
<text text-anchor="start" x="491.28" y="-15.4" font-family="Times-12" font-size="14.00"> &#160;Bootstrap</text>
<polygon fill="#fdb462" stroke="transparent" points="564.5,-10 564.5,-30 584.5,-30 584.5,-10 564.5,-10"/>
<text text-anchor="start" x="588.17" y="-15.4" font-family="Times-12" font-size="14.00"> &#160;Providers</text>
<polygon fill="#fb8072" stroke="transparent" points="660.5,-10 660.5,-30 680.5,-30 680.5,-10 660.5,-10"/>
<text text-anchor="start" x="684.23" y="-15.4" font-family="Times-12" font-size="14.00"> &#160;Exports</text>
<g id="clust1" class="cluster">
<title>cluster_EstadoMaterialModule</title>
<polygon fill="none" stroke="black" stroke-dasharray="1,5" points="8,-70 8,-195 997,-195 997,-70 8,-70"/>
</g>
<g id="clust2" class="cluster">
<title>cluster_EstadoMaterialModule_declarations</title>
<polygon fill="none" stroke="black" points="807,-78 807,-130 989,-130 989,-78 807,-78"/>
</g>
<g id="clust4" class="cluster">
<title>cluster_EstadoMaterialModule_imports</title>
<polygon fill="none" stroke="black" points="16,-78 16,-130 799,-130 799,-78 16,-78"/>
</g>
<!-- EstadoMaterialComponent -->
<g id="node1" class="node">
<title>EstadoMaterialComponent</title>
<polygon fill="#ffffb3" stroke="black" points="981.36,-122 814.64,-122 814.64,-86 981.36,-86 981.36,-122"/>
<text text-anchor="middle" x="898" y="-99.8" font-family="Times,serif" font-size="14.00">EstadoMaterialComponent</text>
</g>
<!-- EstadoMaterialModule -->
<g id="node2" class="node">
<title>EstadoMaterialModule</title>
<polygon fill="#8dd3c7" stroke="black" points="567.57,-187 564.57,-191 543.57,-191 540.57,-187 422.43,-187 422.43,-151 567.57,-151 567.57,-187"/>
<text text-anchor="middle" x="495" y="-164.8" font-family="Times,serif" font-size="14.00">EstadoMaterialModule</text>
</g>
<!-- EstadoMaterialComponent&#45;&gt;EstadoMaterialModule -->
<g id="edge1" class="edge">
<title>EstadoMaterialComponent&#45;&gt;EstadoMaterialModule</title>
<path fill="none" stroke="black" d="M898,-122.28C898,-143.32 898,-175 898,-175 898,-175 577.98,-175 577.98,-175"/>
<polygon fill="black" stroke="black" points="577.98,-171.5 567.98,-175 577.98,-178.5 577.98,-171.5"/>
</g>
<!-- EstadoMaterialRoutingModule -->
<g id="node3" class="node">
<title>EstadoMaterialRoutingModule</title>
<polygon fill="#8dd3c7" stroke="black" points="791.19,-122 788.19,-126 767.19,-126 764.19,-122 600.81,-122 600.81,-86 791.19,-86 791.19,-122"/>
<text text-anchor="middle" x="696" y="-99.8" font-family="Times,serif" font-size="14.00">EstadoMaterialRoutingModule</text>
</g>
<!-- EstadoMaterialRoutingModule&#45;&gt;EstadoMaterialModule -->
<g id="edge2" class="edge">
<title>EstadoMaterialRoutingModule&#45;&gt;EstadoMaterialModule</title>
<path fill="none" stroke="black" d="M696,-122.02C696,-139.37 696,-163 696,-163 696,-163 577.57,-163 577.57,-163"/>
<polygon fill="black" stroke="black" points="577.57,-159.5 567.57,-163 577.57,-166.5 577.57,-159.5"/>
</g>
<!-- FormEstadoMaterialModule -->
<g id="node4" class="node">
<title>FormEstadoMaterialModule</title>
<polygon fill="#8dd3c7" stroke="black" points="582.91,-122 579.91,-126 558.91,-126 555.91,-122 407.09,-122 407.09,-86 582.91,-86 582.91,-122"/>
<text text-anchor="middle" x="495" y="-99.8" font-family="Times,serif" font-size="14.00">FormEstadoMaterialModule</text>
</g>
<!-- FormEstadoMaterialModule&#45;&gt;EstadoMaterialModule -->
<g id="edge3" class="edge">
<title>FormEstadoMaterialModule&#45;&gt;EstadoMaterialModule</title>
<path fill="none" stroke="black" d="M495,-122.11C495,-122.11 495,-140.99 495,-140.99"/>
<polygon fill="black" stroke="black" points="491.5,-140.99 495,-150.99 498.5,-140.99 491.5,-140.99"/>
</g>
<!-- InputValidatorComponent -->
<g id="node5" class="node">
<title>InputValidatorComponent</title>
<polygon fill="#8dd3c7" stroke="black" points="388.75,-122 385.75,-126 364.75,-126 361.75,-122 225.25,-122 225.25,-86 388.75,-86 388.75,-122"/>
<text text-anchor="middle" x="307" y="-99.8" font-family="Times,serif" font-size="14.00">InputValidatorComponent</text>
</g>
<!-- InputValidatorComponent&#45;&gt;EstadoMaterialModule -->
<g id="edge4" class="edge">
<title>InputValidatorComponent&#45;&gt;EstadoMaterialModule</title>
<path fill="none" stroke="black" d="M307,-122.02C307,-139.37 307,-163 307,-163 307,-163 412.31,-163 412.31,-163"/>
<polygon fill="black" stroke="black" points="412.31,-166.5 422.31,-163 412.31,-159.5 412.31,-166.5"/>
</g>
<!-- TabelaEstadoMaterialModule -->
<g id="node6" class="node">
<title>TabelaEstadoMaterialModule</title>
<polygon fill="#8dd3c7" stroke="black" points="207.66,-122 204.66,-126 183.66,-126 180.66,-122 24.34,-122 24.34,-86 207.66,-86 207.66,-122"/>
<text text-anchor="middle" x="116" y="-99.8" font-family="Times,serif" font-size="14.00">TabelaEstadoMaterialModule</text>
</g>
<!-- TabelaEstadoMaterialModule&#45;&gt;EstadoMaterialModule -->
<g id="edge5" class="edge">
<title>TabelaEstadoMaterialModule&#45;&gt;EstadoMaterialModule</title>
<path fill="none" stroke="black" d="M116,-122.28C116,-143.32 116,-175 116,-175 116,-175 412.37,-175 412.37,-175"/>
<polygon fill="black" stroke="black" points="412.37,-178.5 422.37,-175 412.37,-171.5 412.37,-178.5"/>
</g>
</g>
</svg>
